"","group","PROPERTY_ZIP","commissioner_dist","Total Single-Family and Multi-Family Properties","COVID Adjustment","NBHD Pre-COVID Unemployment","NBHD Post-COVID Unemployment"
"1","2 - 6 Unit Multi Family","0-0","10th",14,-10.9833403235454,0.0436100131645195,0.148188098390806
"2","2 - 6 Unit Multi Family","0-0","11th",52,-12.6695154234983,0.0426177896187447,0.151069232753575
"3","2 - 6 Unit Multi Family","0-0","12th",23,-11.4924083626511,0.0437238289612585,0.147887189441912
"4","2 - 6 Unit Multi Family","0-0","13th",12,-12.540252230735,0.0432668115135552,0.155956502380802
"5","2 - 6 Unit Multi Family","0-0","14th",11,-12.7126867314632,0.0463610695350699,0.170798946441201
"6","2 - 6 Unit Multi Family","0-0","15th",4,-13.7595442481649,0.0457266982622433,0.179315429173249
"7","2 - 6 Unit Multi Family","0-0","16th",16,-14.4113295778555,0.0480111947435569,0.188015096891272
"8","2 - 6 Unit Multi Family","0-0","17th",8,-13.5830473963803,0.0470965072018573,0.180187297344784
"9","2 - 6 Unit Multi Family","0-0","1st",21,-12.27948197256,0.0443982128895363,0.15557041533797
"10","2 - 6 Unit Multi Family","0-0","2nd",68,-12.2521671875485,0.045441671751376,0.160739596305198
"11","2 - 6 Unit Multi Family","0-0","3rd",72,-11.7354704376105,0.0419251738682503,0.146539123126894
"12","2 - 6 Unit Multi Family","0-0","4th",34,-12.0085507140213,0.0432821657651206,0.153923876310595
"13","2 - 6 Unit Multi Family","0-0","5th",91,-12.9960222120979,0.0453584824463188,0.168732003528378
"14","2 - 6 Unit Multi Family","0-0","6th",21,-14.190976910192,0.0513429870270061,0.211215927146187
"15","2 - 6 Unit Multi Family","0-0","7th",17,-14.1210352359317,0.0488988925847058,0.196327892078069
"16","2 - 6 Unit Multi Family","0-0","8th",58,-13.2983505990914,0.0477955192658914,0.171595350292899
"17","2 - 6 Unit Multi Family","0-0","9th",54,-14.6801374868859,0.0478202169262023,0.191826611235109
"18","2 - 6 Unit Multi Family","60004","14th",90,-13.4455302613578,0.0471902734913383,0.175545044444021
"19","2 - 6 Unit Multi Family","60004","15th",25,-12.7670176782541,0.0421835871426697,0.155981235090088
"20","2 - 6 Unit Multi Family","60004","9th",8,-12.7670176782541,0.0425139611007522,0.158328390517883
"21","2 - 6 Unit Multi Family","60005","14th",12,-12.5240033743284,0.0438518072728065,0.159598993656201
"22","2 - 6 Unit Multi Family","60005","15th",44,-12.5240033743284,0.0423536224061581,0.156361617825277
"23","2 - 6 Unit Multi Family","60007","15th",42,-13.2428294292556,0.0486556613601806,0.199288108810303
"24","2 - 6 Unit Multi Family","60008","14th",9,-13.4177576372619,0.0449426722762298,0.171792710491466
"25","2 - 6 Unit Multi Family","60010","15th",51,-12.7461613827422,0.0428654682904882,0.158488339747109
"26","2 - 6 Unit Multi Family","60015","9th",1,-13.0923599200872,0.0462334609075998,0.180846364133406
"27","2 - 6 Unit Multi Family","60016","17th",197,-13.1076188294022,0.0464314337506617,0.174135055919053
"28","2 - 6 Unit Multi Family","60016","9th",116,-13.2814303764951,0.0454369174018924,0.17130108055737
"29","2 - 6 Unit Multi Family","60018","17th",44,-13.1076188294022,0.0461252136835631,0.181431042746065
"30","2 - 6 Unit Multi Family","60018","9th",146,-14.2639691508171,0.0480245246737694,0.186329762600912
"31","2 - 6 Unit Multi Family","60022","13th",5,-10.1254873614089,0.0407535042735043,0.128203760683761
"32","2 - 6 Unit Multi Family","60025","13th",1,-11.4922753679512,0.0417464309993202,0.141726716519375
"33","2 - 6 Unit Multi Family","60025","14th",103,-12.2145366789221,0.0422851088296514,0.15418655202111
"34","2 - 6 Unit Multi Family","60026","14th",18,-11.2680339317049,0.0421784572449496,0.140874645580217
"35","2 - 6 Unit Multi Family","60043","13th",9,-10.6960880947242,0.0386939797379614,0.133226283417487
"36","2 - 6 Unit Multi Family","60053","13th",66,-12.9579637748676,0.0445836636525571,0.16816499236461
"37","2 - 6 Unit Multi Family","60056","15th",116,-14.0984518130616,0.0480080233786269,0.187513493616348
"38","2 - 6 Unit Multi Family","60056","9th",255,-12.6033356925821,0.0470608075246837,0.174724595747609
"39","2 - 6 Unit Multi Family","60062","14th",8,-11.4583831276421,0.0394546708617753,0.134729360969317
"40","2 - 6 Unit Multi Family","60062","9th",66,-13.0923599200872,0.0462334609075998,0.180846364133406
"41","2 - 6 Unit Multi Family","60067","14th",138,-12.6718179699787,0.0450763680124245,0.163222088538347
"42","2 - 6 Unit Multi Family","60068","9th",273,-13.0432465074163,0.0452628075112335,0.168955025238833
"43","2 - 6 Unit Multi Family","60070","14th",111,-13.316661840771,0.0483739239924028,0.185680947659756
"44","2 - 6 Unit Multi Family","60074","14th",258,-13.1064852296509,0.0496364495051801,0.200941797878862
"45","2 - 6 Unit Multi Family","60076","13th",556,-13.0112980633806,0.0443465656011628,0.166131385813223
"46","2 - 6 Unit Multi Family","60077","13th",623,-13.1459969628282,0.0459511765364744,0.182081898070983
"47","2 - 6 Unit Multi Family","60090","14th",207,-13.2978051661795,0.0470550222557515,0.17703983295802
"48","2 - 6 Unit Multi Family","60091","13th",72,-10.3866844499996,0.0406657686053342,0.130243026436392
"49","2 - 6 Unit Multi Family","60093","13th",37,-10.1928039303312,0.0403254651888925,0.131751337141301
"50","2 - 6 Unit Multi Family","60093","14th",1,-11.3889975892874,0.0374494927216586,0.127837670930745
"51","2 - 6 Unit Multi Family","60093","9th",16,-13.0923599200872,0.0462334609075998,0.180846364133406
"52","2 - 6 Unit Multi Family","60103","15th",55,-13.7595442481649,0.0457266982622433,0.179315429173249
"53","2 - 6 Unit Multi Family","60104","1st",386,-12.6136579859179,0.045243698479428,0.171564659329004
"54","2 - 6 Unit Multi Family","60107","15th",1,-14.157481299597,0.048445704207609,0.186156714537667
"55","2 - 6 Unit Multi Family","60120","15th",42,-13.6952184715009,0.0455350190812653,0.175198380899321
"56","2 - 6 Unit Multi Family","60130","1st",824,-11.1987820754906,0.0419424112063703,0.143295240711538
"57","2 - 6 Unit Multi Family","60131","16th",231,-14.3120779161563,0.0464298146046623,0.188428687320932
"58","2 - 6 Unit Multi Family","60131","17th",33,-14.3120779161563,0.0472045248868778,0.187574660633484
"59","2 - 6 Unit Multi Family","60133","15th",72,-14.0037565603858,0.0479693601540632,0.190559977906532
"60","2 - 6 Unit Multi Family","60153","16th",109,-14.3387586729977,0.0484806629834254,0.195800184162063
"61","2 - 6 Unit Multi Family","60153","1st",688,-12.2236760119118,0.0446623418729536,0.159538534305181
"62","2 - 6 Unit Multi Family","60154","16th",94,-12.2102310486243,0.0428878863671105,0.159165019598275
"63","2 - 6 Unit Multi Family","60154","17th",31,-12.0792552196315,0.0430015117157974,0.152195011337869
"64","2 - 6 Unit Multi Family","60154","1st",110,-13.0040457311849,0.0439018227009113,0.1643314001657
"65","2 - 6 Unit Multi Family","60155","16th",12,-12.7234887280669,0.043451276706618,0.160613861386139
"66","2 - 6 Unit Multi Family","60155","1st",170,-12.6332975766612,0.0455502246785951,0.164391516239121
"67","2 - 6 Unit Multi Family","60160","16th",1083,-14.4113295778555,0.0485733282551325,0.197456135341399
"68","2 - 6 Unit Multi Family","60162","16th",11,-13.5830473963803,0.0464579236191024,0.175741540384062
"69","2 - 6 Unit Multi Family","60162","17th",37,-13.5830473963803,0.0458069915326719,0.172172749208861
"70","2 - 6 Unit Multi Family","60162","1st",15,-13.5830473963803,0.045578125,0.17091796875
"71","2 - 6 Unit Multi Family","60163","16th",8,-13.5830473963803,0.0432865101472344,0.174033426183844
"72","2 - 6 Unit Multi Family","60163","17th",24,-13.5830473963803,0.0432865101472344,0.174033426183844
"73","2 - 6 Unit Multi Family","60164","16th",79,-14.2586927294715,0.0476630002208415,0.192973161348238
"74","2 - 6 Unit Multi Family","60164","17th",2,-14.7339103674353,0.0460029117259777,0.185690103649862
"75","2 - 6 Unit Multi Family","60165","16th",186,-15.1861548254498,0.0498394761084886,0.210459379518706
"76","2 - 6 Unit Multi Family","60169","15th",1,-12.9985902192384,0.0485457713018689,0.184501742160279
"77","2 - 6 Unit Multi Family","60171","16th",2,-15.3886794760529,0.0482182890855457,0.206607669616519
"78","2 - 6 Unit Multi Family","60171","9th",329,-14.6342611938231,0.04795635680679,0.200723839865935
"79","2 - 6 Unit Multi Family","60176","9th",301,-14.1584112097675,0.0497543800049711,0.198948622260345
"80","2 - 6 Unit Multi Family","60192","15th",1,-12.424891678693,0.0431960784313725,0.157353973168215
"81","2 - 6 Unit Multi Family","60193","15th",49,-13.2850430436101,0.0446130175890639,0.161212085792304
"82","2 - 6 Unit Multi Family","60195","15th",1,-11.8274315808386,0.0440657026092424,0.1455730902232
"83","2 - 6 Unit Multi Family","60201","13th",813,-12.0778758580327,0.0435263864059154,0.155882042895406
"84","2 - 6 Unit Multi Family","60202","13th",914,-12.7069304642738,0.0433773862769849,0.156982385064959
"85","2 - 6 Unit Multi Family","60203","13th",67,-11.6278061802712,0.0405140803266129,0.134886969015561
"86","2 - 6 Unit Multi Family","60301","1st",18,-10.1684783861293,0.0415734720416125,0.141847420892935
"87","2 - 6 Unit Multi Family","60302","1st",633,-11.0690377765544,0.0419632128075803,0.140901383852375
"88","2 - 6 Unit Multi Family","60304","1st",386,-11.5141772897071,0.0414576108735073,0.140722701566859
"89","2 - 6 Unit Multi Family","60305","9th",97,-11.503471672128,0.0421896687776703,0.143182957883292
"90","2 - 6 Unit Multi Family","60402","16th",3115,-14.0872197622237,0.0484900499340555,0.19160227440003
"91","2 - 6 Unit Multi Family","60406","5th",974,-14.1020668384108,0.0485355425243269,0.193727130294462
"92","2 - 6 Unit Multi Family","60409","4th",1037,-12.767282029814,0.0450287230178295,0.163770476746282
"93","2 - 6 Unit Multi Family","60411","5th",627,-14.190976910192,0.0474890839994612,0.185389244333132
"94","2 - 6 Unit Multi Family","60411","6th",477,-13.8458320568649,0.050372873303329,0.204066384985558
"95","2 - 6 Unit Multi Family","60415","6th",245,-13.3139744445986,0.0490114130834268,0.193202752129041
"96","2 - 6 Unit Multi Family","60418","6th",86,-14.0335145818974,0.0457749554820789,0.170414740588483
"97","2 - 6 Unit Multi Family","60419","4th",5,-11.8995317241692,0.0422565055762082,0.150503717472119
"98","2 - 6 Unit Multi Family","60419","5th",119,-12.3903340581867,0.0442805797765901,0.16715956474914
"99","2 - 6 Unit Multi Family","60419","6th",191,-12.5665455158896,0.0429668858113098,0.155427042023465
"100","2 - 6 Unit Multi Family","60422","5th",7,-11.3894237508594,0.0391009728279101,0.133478698423348
"101","2 - 6 Unit Multi Family","60425","5th",12,-14.2904576567352,0.0451698656429942,0.18196641074856
"102","2 - 6 Unit Multi Family","60425","6th",12,-13.0249258472476,0.0445951045971015,0.173724893948333
"103","2 - 6 Unit Multi Family","60426","5th",831,-13.1374900344884,0.0469185386942185,0.176123034275522
"104","2 - 6 Unit Multi Family","60426","6th",1,-12.5665455158896,0.0422565055762082,0.150503717472119
"105","2 - 6 Unit Multi Family","60428","5th",9,-12.2847062830573,0.0436248621316191,0.160143574960676
"106","2 - 6 Unit Multi Family","60429","5th",90,-12.9147323247535,0.0436337265036657,0.158174785514342
"107","2 - 6 Unit Multi Family","60430","6th",124,-12.3919674680186,0.0433174187387758,0.157223918558984
"108","2 - 6 Unit Multi Family","60438","4th",317,-12.8233859487773,0.044743912375711,0.16622720226396
"109","2 - 6 Unit Multi Family","60438","6th",1,-13.6044561064104,0.0422697266632285,0.150574522949974
"110","2 - 6 Unit Multi Family","60439","17th",135,-13.2927632806466,0.0448887845474605,0.173076615432785
"111","2 - 6 Unit Multi Family","60443","6th",87,-12.7487741791098,0.044377992785218,0.165115241186003
"112","2 - 6 Unit Multi Family","60445","5th",117,-14.0335145818974,0.0472396078773226,0.187357087871082
"113","2 - 6 Unit Multi Family","60445","6th",15,-13.957999020714,0.048813006148532,0.192409769948187
"114","2 - 6 Unit Multi Family","60452","5th",5,-13.5135681139322,0.0469421591185439,0.178966032512113
"115","2 - 6 Unit Multi Family","60452","6th",118,-13.8306704330695,0.047511453948045,0.18720400286242
"116","2 - 6 Unit Multi Family","60453","11th",308,-12.91928533938,0.0444406065326699,0.165888827763297
"117","2 - 6 Unit Multi Family","60453","6th",201,-13.3139744445986,0.0444190250113762,0.164900044709716
"118","2 - 6 Unit Multi Family","60455","11th",11,-13.7808956975097,0.0469203422423078,0.187395424843078
"119","2 - 6 Unit Multi Family","60455","6th",187,-14.0615395581322,0.0471834558987092,0.189076192311471
"120","2 - 6 Unit Multi Family","60456","11th",2,-13.5257351663532,0.0482503740648379,0.186556608478803
"121","2 - 6 Unit Multi Family","60457","17th",105,-14.1774993835308,0.0462463266673831,0.184864559913274
"122","2 - 6 Unit Multi Family","60457","6th",4,-13.0760023687756,0.0472879484820607,0.177287948482061
"123","2 - 6 Unit Multi Family","60458","17th",4,-14.0899262269141,0.0467318539066112,0.177263985205733
"124","2 - 6 Unit Multi Family","60458","6th",232,-14.0899262269141,0.0503989321175096,0.20326254195215
"125","2 - 6 Unit Multi Family","60459","11th",320,-13.6828379805023,0.0479066469388527,0.186743996192025
"126","2 - 6 Unit Multi Family","60462","17th",219,-12.7765220168982,0.046831473738409,0.17472648055997
"127","2 - 6 Unit Multi Family","60463","17th",5,-12.9021196723054,0.044619897061022,0.166903606525367
"128","2 - 6 Unit Multi Family","60463","6th",1,-13.2329971602479,0.0444952853598015,0.169277419354839
"129","2 - 6 Unit Multi Family","60464","17th",1,-13.2057954954478,0.0458083989501312,0.174287401574803
"130","2 - 6 Unit Multi Family","60465","17th",108,-13.6516182953529,0.0466882645074017,0.185766866191307
"131","2 - 6 Unit Multi Family","60465","6th",7,-14.1774993835308,0.0443331563580368,0.173696566693814
"132","2 - 6 Unit Multi Family","60466","5th",1,-11.7975787118377,0.0436088397790055,0.156485082872928
"133","2 - 6 Unit Multi Family","60469","5th",118,-13.7732484439891,0.0498557246910941,0.196504951016603
"134","2 - 6 Unit Multi Family","60471","6th",49,-12.074284333279,0.0411672259714299,0.148096963151212
"135","2 - 6 Unit Multi Family","60472","5th",98,-13.5705067152002,0.0453772771986521,0.178881033835104
"136","2 - 6 Unit Multi Family","60473","4th",3,-12.3340263635336,0.0418031071300674,0.147032204940113
"137","2 - 6 Unit Multi Family","60473","6th",42,-11.4655212575953,0.0430416428775573,0.15336536048655
"138","2 - 6 Unit Multi Family","60475","6th",74,-14.3713012877871,0.0438987150415722,0.178148148148148
"139","2 - 6 Unit Multi Family","60476","6th",19,-13.6044561064104,0.0456190781049936,0.178256081946223
"140","2 - 6 Unit Multi Family","60477","17th",88,-13.4142432779485,0.0458919509532967,0.173036816778173
"141","2 - 6 Unit Multi Family","60477","6th",119,-13.3272078274869,0.0454120474411848,0.173364737223088
"142","2 - 6 Unit Multi Family","60478","5th",12,-11.7359990359534,0.0423317134933305,0.146724196583154
"143","2 - 6 Unit Multi Family","60480","17th",44,-13.4515608050595,0.0495314192679464,0.190310499402315
"144","2 - 6 Unit Multi Family","60482","17th",50,-13.5294819369841,0.0449547827280013,0.173565509087995
"145","2 - 6 Unit Multi Family","60482","6th",70,-13.7735251128737,0.0487871092125379,0.190440265285257
"146","2 - 6 Unit Multi Family","60487","17th",1,-12.9241113270217,0.0438930514859774,0.160891167852658
"147","2 - 6 Unit Multi Family","60501","16th",651,-14.7342077395905,0.0502636918823061,0.207964594681054
"148","2 - 6 Unit Multi Family","60501","6th",8,-14.7342077395905,0.0455198989260897,0.18143145925458
"149","2 - 6 Unit Multi Family","60513","16th",333,-13.6048093049434,0.0431895317583966,0.167973618009949
"150","2 - 6 Unit Multi Family","60513","17th",227,-11.4036850364655,0.0431442879215583,0.152687001086332
"151","2 - 6 Unit Multi Family","60525","16th",199,-11.0624027655976,0.0458823250809752,0.160688443360457
"152","2 - 6 Unit Multi Family","60525","17th",91,-11.115039487466,0.0435113376973805,0.154131594383919
"153","2 - 6 Unit Multi Family","60526","17th",171,-12.3145210286621,0.0447630703029198,0.16047262095249
"154","2 - 6 Unit Multi Family","60534","16th",325,-13.3630015597702,0.0463769389879454,0.177324078192228
"155","2 - 6 Unit Multi Family","60546","16th",137,-13.0347995785943,0.0461995533800071,0.172669756605447
"156","2 - 6 Unit Multi Family","60546","17th",156,-11.8001250902575,0.0439335565222918,0.154909893878598
"157","2 - 6 Unit Multi Family","60558","17th",54,-10.4215573454467,0.0401132291106842,0.127583271139672
"158","2 - 6 Unit Multi Family","60601","2nd",1,-10.2176759111006,0.0396520350212967,0.118888310459063
"159","2 - 6 Unit Multi Family","60604","2nd",1,-10.2176759111006,0.0452024353120244,0.154190258751903
"160","2 - 6 Unit Multi Family","60605","2nd",5,-10.1956805639422,0.039190838083175,0.120862993455774
"161","2 - 6 Unit Multi Family","60605","3rd",5,-10.2176759111006,0.0411683436538342,0.129691453731506
"162","2 - 6 Unit Multi Family","60606","2nd",1,-10.2176759111006,0.040664185110664,0.123978269617706
"163","2 - 6 Unit Multi Family","60607","2nd",617,-10.9299871134383,0.0424727269369793,0.139052383819963
"164","2 - 6 Unit Multi Family","60608","11th",1443,-12.9967501007198,0.0500924008734341,0.18889903275191
"165","2 - 6 Unit Multi Family","60608","16th",2,-14.9623570299641,0.0516712802768166,0.216589388696655
"166","2 - 6 Unit Multi Family","60608","2nd",93,-12.8537491105896,0.0451993986294744,0.170173303003747
"167","2 - 6 Unit Multi Family","60608","7th",4362,-13.1466827114661,0.0491275189553371,0.187085596730839
"168","2 - 6 Unit Multi Family","60609","11th",2450,-13.4748871390266,0.0484707068390646,0.18845822037696
"169","2 - 6 Unit Multi Family","60609","2nd",763,-13.0819591076323,0.0456673082813788,0.161728035496445
"170","2 - 6 Unit Multi Family","60609","3rd",9,-11.6285288673877,0.0452225298977267,0.164138802364771
"171","2 - 6 Unit Multi Family","60609","7th",2785,-15.0374862894801,0.0513238267344963,0.210869299526474
"172","2 - 6 Unit Multi Family","60610","12th",23,-9.80980585748957,0.0430615697595117,0.139716932691007
"173","2 - 6 Unit Multi Family","60610","3rd",206,-10.2528139152994,0.04182178752948,0.130373057892761
"174","2 - 6 Unit Multi Family","60611","12th",9,-9.86231219863526,0.04110874829678,0.127840928837467
"175","2 - 6 Unit Multi Family","60611","3rd",22,-9.80980585748957,0.0420097766556657,0.131950042204437
"176","2 - 6 Unit Multi Family","60612","12th",1,-9.82732452065063,0.040120887245841,0.118376340110906
"177","2 - 6 Unit Multi Family","60612","1st",729,-11.4924083626511,0.0466636719581229,0.171009971857775
"178","2 - 6 Unit Multi Family","60612","2nd",1653,-12.27948197256,0.0427710414305454,0.150753692630741
"179","2 - 6 Unit Multi Family","60612","7th",1,-13.6534861188165,0.0528554502369668,0.209367298578199
"180","2 - 6 Unit Multi Family","60612","8th",141,-11.4924083626511,0.0451362126245847,0.160301218161683
"181","2 - 6 Unit Multi Family","60613","10th",897,-10.2493068418147,0.0435723200862499,0.139330700979652
"182","2 - 6 Unit Multi Family","60613","12th",682,-10.2993373177723,0.043466923914226,0.140693353479489
"183","2 - 6 Unit Multi Family","60614","10th",718,-9.90715005116057,0.0415338860817159,0.124575312887672
"184","2 - 6 Unit Multi Family","60614","12th",1513,-9.90715005116057,0.0423522008575738,0.134480317651215
"185","2 - 6 Unit Multi Family","60614","3rd",85,-9.90715005116057,0.0420805217172831,0.127107027603929
"186","2 - 6 Unit Multi Family","60615","2nd",132,-11.6285288673877,0.0432231474225009,0.148204767986377
"187","2 - 6 Unit Multi Family","60615","3rd",510,-11.6285288673877,0.0410886461344726,0.137687058492998
"188","2 - 6 Unit Multi Family","60616","11th",1723,-13.3019316164096,0.0508655169869541,0.197567199198559
"189","2 - 6 Unit Multi Family","60616","2nd",297,-13.3019316164096,0.0562591574553051,0.221259832357176
"190","2 - 6 Unit Multi Family","60616","3rd",128,-11.7236080884163,0.0391767685181781,0.134492067174415
"191","2 - 6 Unit Multi Family","60616","7th",241,-13.1466827114661,0.0472653032443228,0.174644651690774
"192","2 - 6 Unit Multi Family","60617","4th",4173,-12.7896485244398,0.0476952368764857,0.181340431528264
"193","2 - 6 Unit Multi Family","60618","10th",7,-11.1059957529241,0.0404689178818112,0.141614735226401
"194","2 - 6 Unit Multi Family","60618","12th",2552,-11.1474087683828,0.0443938759924161,0.152288484251198
"195","2 - 6 Unit Multi Family","60618","8th",5201,-13.2983505990914,0.0484483740611137,0.183963184163464
"196","2 - 6 Unit Multi Family","60619","3rd",1924,-12.0085507140213,0.0447908685305411,0.158792663326251
"197","2 - 6 Unit Multi Family","60619","4th",1884,-12.0085507140213,0.0431115318968282,0.152681808749425
"198","2 - 6 Unit Multi Family","60620","3rd",2380,-11.8424120078334,0.0449013989123783,0.157651820876869
"199","2 - 6 Unit Multi Family","60620","4th",891,-11.7851958795065,0.044672843091815,0.154799743360203
"200","2 - 6 Unit Multi Family","60621","2nd",2794,-12.4987546512283,0.0477552266231086,0.181158680370268
"201","2 - 6 Unit Multi Family","60621","3rd",371,-12.4987546512283,0.0449385744165055,0.157327068600624
"202","2 - 6 Unit Multi Family","60622","12th",1242,-10.3957713167397,0.0429048510089618,0.135459872379004
"203","2 - 6 Unit Multi Family","60622","1st",21,-11.4924083626511,0.0468544994495593,0.173440914302854
"204","2 - 6 Unit Multi Family","60622","2nd",1690,-11.4924083626511,0.0442401272763832,0.151349328964834
"205","2 - 6 Unit Multi Family","60622","8th",1620,-11.9772907299628,0.0473357830881825,0.17228596871901
"206","2 - 6 Unit Multi Family","60623","2nd",3181,-12.8537491105896,0.0452495086513625,0.168527767772894
"207","2 - 6 Unit Multi Family","60623","7th",4883,-14.5697546902781,0.0503830417471139,0.205862090827958
"208","2 - 6 Unit Multi Family","60623","8th",1,-14.1823518156057,0.0508623962040332,0.203075523922499
"209","2 - 6 Unit Multi Family","60624","1st",2439,-12.27948197256,0.0467857636443907,0.172825798520327
"210","2 - 6 Unit Multi Family","60624","2nd",1302,-12.27948197256,0.04565089811574,0.164276262065982
"211","2 - 6 Unit Multi Family","60624","8th",1,-12.7421723848902,0.0487432847275518,0.180493476592479
"212","2 - 6 Unit Multi Family","60625","10th",489,-11.2763280965159,0.0426320825942144,0.14547919423721
"213","2 - 6 Unit Multi Family","60625","12th",2522,-11.7173738052761,0.0448886026671389,0.164454835298287
"214","2 - 6 Unit Multi Family","60625","8th",1181,-13.4564359142573,0.0486748583062416,0.18789671888198
"215","2 - 6 Unit Multi Family","60626","10th",305,-12.8615643462893,0.0474322773682195,0.179278326649566
"216","2 - 6 Unit Multi Family","60626","13th",568,-12.8615643462893,0.0481118002184556,0.18149507129471
"217","2 - 6 Unit Multi Family","60628","11th",1,-10.9259900704282,0.0389294911097486,0.131315757204169
"218","2 - 6 Unit Multi Family","60628","4th",402,-12.0119328150218,0.0418623897126097,0.146634967923024
"219","2 - 6 Unit Multi Family","60628","5th",2342,-12.1150268668365,0.0441038924888397,0.158618315220493
"220","2 - 6 Unit Multi Family","60629","11th",1266,-14.1210352359317,0.049376334178493,0.1974409033245
"221","2 - 6 Unit Multi Family","60629","2nd",1210,-12.628643266213,0.0461940514291027,0.171367667202925
"222","2 - 6 Unit Multi Family","60629","3rd",14,-12.3934729810809,0.044016958656644,0.161808513463581
"223","2 - 6 Unit Multi Family","60629","7th",1362,-14.1892941275161,0.0507629460484796,0.205230932484248
"224","2 - 6 Unit Multi Family","60630","10th",537,-12.6540042575947,0.0425490127932863,0.160847229948757
"225","2 - 6 Unit Multi Family","60630","12th",2630,-13.0863210848091,0.0443345120386303,0.164157371004207
"226","2 - 6 Unit Multi Family","60630","8th",3,-13.4564359142573,0.0505283018867924,0.205100145137881
"227","2 - 6 Unit Multi Family","60630","9th",1,-13.3619428013962,0.0476268656716418,0.186909355660721
"228","2 - 6 Unit Multi Family","60631","9th",429,-12.0535789456712,0.0428818974162932,0.151209182653315
"229","2 - 6 Unit Multi Family","60632","11th",252,-14.1210352359317,0.04899603340613,0.19334679087922
"230","2 - 6 Unit Multi Family","60632","16th",715,-14.1210352359317,0.0479483013356521,0.189442181381072
"231","2 - 6 Unit Multi Family","60632","7th",5177,-14.5587467385388,0.0511789476519304,0.209099953482127
"232","2 - 6 Unit Multi Family","60633","4th",437,-12.7413601813826,0.0461660444215994,0.173618743535257
"233","2 - 6 Unit Multi Family","60634","12th",1026,-13.3619428013962,0.0465451750780503,0.178772054484843
"234","2 - 6 Unit Multi Family","60634","1st",344,-13.7908166076467,0.0470467295789382,0.180847035072315
"235","2 - 6 Unit Multi Family","60634","8th",335,-13.7908166076467,0.0478361389117883,0.193756063359179
"236","2 - 6 Unit Multi Family","60634","9th",561,-12.9035287904071,0.0453547372376533,0.169966221962148
"237","2 - 6 Unit Multi Family","60636","11th",33,-13.3201511070777,0.0484254590624013,0.196608436096279
"238","2 - 6 Unit Multi Family","60636","2nd",2360,-12.6530598697171,0.0465051938644512,0.168948209866192
"239","2 - 6 Unit Multi Family","60636","3rd",2,-12.0987881010616,0.0423011355482204,0.14937857347876
"240","2 - 6 Unit Multi Family","60637","2nd",587,-12.2521671875485,0.04631818729847,0.167317989761628
"241","2 - 6 Unit Multi Family","60637","3rd",1974,-12.2521671875485,0.0440287070676823,0.155567352286758
"242","2 - 6 Unit Multi Family","60638","11th",816,-12.6695154234983,0.0454375579512551,0.171499457454486
"243","2 - 6 Unit Multi Family","60638","16th",82,-14.5375601487776,0.0476786606102299,0.19328658107988
"244","2 - 6 Unit Multi Family","60638","2nd",1,-12.2454764323855,0.0422235294117647,0.121458823529412
"245","2 - 6 Unit Multi Family","60638","7th",16,-14.0069410202226,0.0510937607327971,0.206011830181324
"246","2 - 6 Unit Multi Family","60639","1st",1404,-13.0080120250502,0.0453559234858041,0.168995308900653
"247","2 - 6 Unit Multi Family","60639","8th",4778,-13.9876411038008,0.0492479430105573,0.197348103036056
"248","2 - 6 Unit Multi Family","60640","10th",1696,-11.7173738052761,0.0443832977440035,0.155131301122464
"249","2 - 6 Unit Multi Family","60641","12th",1816,-13.0863210848091,0.0458450795837086,0.170457767150163
"250","2 - 6 Unit Multi Family","60641","8th",2242,-13.8913344380084,0.0488158425599245,0.192136466733694
"251","2 - 6 Unit Multi Family","60642","12th",319,-11.4924083626511,0.0455229531663459,0.156830440253385
"252","2 - 6 Unit Multi Family","60642","2nd",821,-11.4924083626511,0.0450191947494868,0.15189188252826
"253","2 - 6 Unit Multi Family","60643","11th",297,-10.8426289311593,0.0398898875644129,0.132246244351365
"254","2 - 6 Unit Multi Family","60643","4th",49,-11.4970109106778,0.0437819614571953,0.15082754693655
"255","2 - 6 Unit Multi Family","60643","5th",316,-11.4970109106778,0.0420471238677103,0.143901823356716
"256","2 - 6 Unit Multi Family","60644","1st",3054,-12.5325830351994,0.0446679575600235,0.163207491442123
"257","2 - 6 Unit Multi Family","60644","2nd",318,-12.5325830351994,0.0464038602064921,0.163726853540667
"258","2 - 6 Unit Multi Family","60645","13th",1266,-12.8615643462893,0.0473753946847262,0.175965779022604
"259","2 - 6 Unit Multi Family","60646","10th",876,-12.6548686896962,0.0432240906768908,0.159387118698048
"260","2 - 6 Unit Multi Family","60646","12th",3,-12.3102760014071,0.0437535970763892,0.162149763994529
"261","2 - 6 Unit Multi Family","60646","9th",51,-10.6415622424457,0.0402243590632215,0.131575046588482
"262","2 - 6 Unit Multi Family","60647","12th",666,-10.3957713167397,0.0432302224016215,0.136802267487798
"263","2 - 6 Unit Multi Family","60647","7th",1,-13.1466827114661,0.0517512915129151,0.210145387453875
"264","2 - 6 Unit Multi Family","60647","8th",6446,-11.9772907299628,0.0470980909482743,0.17103150671777
"265","2 - 6 Unit Multi Family","60649","3rd",812,-12.0558910611978,0.0418427013986189,0.142205773032025
"266","2 - 6 Unit Multi Family","60649","4th",929,-12.0558910611978,0.0440883325704646,0.155327240047378
"267","2 - 6 Unit Multi Family","60651","1st",3873,-12.5325830351994,0.0462300494575784,0.174348238827896
"268","2 - 6 Unit Multi Family","60651","8th",1383,-14.1823518156057,0.0502566173619764,0.198346367107643
"269","2 - 6 Unit Multi Family","60652","11th",103,-13.2520559546294,0.0455736726735685,0.174633149309395
"270","2 - 6 Unit Multi Family","60652","3rd",164,-12.234057565698,0.0438705444327388,0.156375258145763
"271","2 - 6 Unit Multi Family","60653","11th",1,-12.5841032892216,0.0454846989141165,0.163908193484699
"272","2 - 6 Unit Multi Family","60653","2nd",2,-11.6285288673877,0.0427222222222222,0.129761904761905
"273","2 - 6 Unit Multi Family","60653","3rd",911,-11.6285288673877,0.0423166201517077,0.149006207691032
"274","2 - 6 Unit Multi Family","60654","12th",58,-9.86231219863526,0.0405640509861368,0.12809731423226
"275","2 - 6 Unit Multi Family","60654","2nd",16,-11.4924083626511,0.0425860445205479,0.141265410958904
"276","2 - 6 Unit Multi Family","60654","3rd",1,-10.361130124537,0.0412438683441352,0.131205489897064
"277","2 - 6 Unit Multi Family","60655","11th",173,-10.9259900704282,0.0392323466808552,0.129294246494337
"278","2 - 6 Unit Multi Family","60656","10th",26,-12.3780716705547,0.0452300859871808,0.165339983775214
"279","2 - 6 Unit Multi Family","60656","9th",543,-12.3744137431586,0.0466940275010203,0.173320717772765
"280","2 - 6 Unit Multi Family","60657","10th",1479,-10.2493068418147,0.0432736539656836,0.13692205048972
"281","2 - 6 Unit Multi Family","60657","12th",1061,-10.3784282983716,0.0418988419066405,0.133668984725199
"282","2 - 6 Unit Multi Family","60657","8th",1,-11.9772907299628,0.0482870662460568,0.17817665615142
"283","2 - 6 Unit Multi Family","60659","10th",1886,-13.6797898115625,0.046613235095577,0.180365554661851
"284","2 - 6 Unit Multi Family","60659","12th",15,-12.6854553870747,0.0457802882551365,0.175506747525299
"285","2 - 6 Unit Multi Family","60659","13th",13,-13.3303126334104,0.0500589865632299,0.191159177822143
"286","2 - 6 Unit Multi Family","60660","10th",1026,-12.0254380554205,0.0451798008761116,0.163914732114862
"287","2 - 6 Unit Multi Family","60660","13th",3,-13.1542057140832,0.0513979200068947,0.202529059367928
"288","2 - 6 Unit Multi Family","60661","2nd",10,-10.7832956772646,0.040873849586802,0.128757279339152
"289","2 - 6 Unit Multi Family","60706","9th",313,-13.6776056597502,0.0455432042020856,0.175126720674378
"290","2 - 6 Unit Multi Family","60707","1st",466,-13.7908166076467,0.0483640309256615,0.194862734726341
"291","2 - 6 Unit Multi Family","60707","9th",848,-13.4357381507697,0.0459598860389702,0.178105336920922
"292","2 - 6 Unit Multi Family","60712","13th",95,-12.9664010481455,0.0429327904647905,0.168324196108173
"293","2 - 6 Unit Multi Family","60714","13th",37,-13.3642285510628,0.043238433096164,0.165666818276971
"294","2 - 6 Unit Multi Family","60714","8th",1,-14.1530527532116,0.0475388127853881,0.185149771689498
"295","2 - 6 Unit Multi Family","60714","9th",397,-13.2910230996155,0.0450607620961344,0.172103387012022
"296","2 - 6 Unit Multi Family","60803","5th",1,-13.6554873129311,0.0429856938483548,0.166897711015737
"297","2 - 6 Unit Multi Family","60803","6th",214,-13.6301263167198,0.0460299015796366,0.17923883396751
"298","2 - 6 Unit Multi Family","60804","16th",5133,-14.8149407290906,0.0503647154951564,0.207341715123281
"299","2 - 6 Unit Multi Family","60805","11th",174,-12.6247683683457,0.0418150047550146,0.152614717800828
"300","2 - 6 Unit Multi Family","60805","4th",56,-12.6318573595288,0.0434375333174753,0.16095402176056
"301","2 - 6 Unit Multi Family","60827","5th",413,-12.4705058769941,0.0436741700140925,0.15722935952186
"302","2 - 6 Unit Multi Family",NA,"10th",6,-10.2493068418147,0.0427788220154746,0.138985631587848
"303","2 - 6 Unit Multi Family",NA,"11th",3,-13.3019316164096,0.0458312694001263,0.172745366848963
"304","2 - 6 Unit Multi Family",NA,"12th",8,-10.5322402449973,0.0424601842312813,0.140793730611761
"305","2 - 6 Unit Multi Family",NA,"13th",5,-12.8615643462893,0.0442837884538929,0.158937992144668
"306","2 - 6 Unit Multi Family",NA,"14th",1,-13.4455302613578,0.0485587110868378,0.182218459858001
"307","2 - 6 Unit Multi Family",NA,"16th",4,-14.6868433039098,0.0513326078692836,0.210618390429718
"308","2 - 6 Unit Multi Family",NA,"17th",4,-12.9803420492685,0.0452565406845435,0.171535370297168
"309","2 - 6 Unit Multi Family",NA,"1st",7,-11.7260835422278,0.0455280894650139,0.163960996621584
"310","2 - 6 Unit Multi Family",NA,"2nd",17,-12.27948197256,0.0439623966113164,0.152648218579975
"311","2 - 6 Unit Multi Family",NA,"3rd",14,-11.6285288673877,0.0423930088299436,0.147979686938534
"312","2 - 6 Unit Multi Family",NA,"4th",4,-12.0558910611978,0.0445536626676968,0.161585397172184
"313","2 - 6 Unit Multi Family",NA,"5th",1,-11.710207285294,0.0425603136308806,0.153089264173703
"314","2 - 6 Unit Multi Family",NA,"6th",1,-14.5507839800446,0.0495756415166603,0.195286863270777
"315","2 - 6 Unit Multi Family",NA,"8th",6,-11.9772907299628,0.0471238461539567,0.170325993179912
"316","2 - 6 Unit Multi Family",NA,"9th",2,-13.1662371747232,0.0440880898355045,0.168827188825143
"317","2 - 6 Unit Multi Family",NA,NA,13,-12.6247683683457,0.0432459684289884,0.158691719851571
"318","Single-Family & Residential Condominiums","0-0","10th",40,-10.0991054522372,0.0434528734936065,0.156114207323926
"319","Single-Family & Residential Condominiums","0-0","11th",219,-10.6436417185956,0.0448955537799058,0.164126502794438
"320","Single-Family & Residential Condominiums","0-0","12th",25,-9.84822080112566,0.0442168306431657,0.152521504451575
"321","Single-Family & Residential Condominiums","0-0","13th",182,-10.0076385993088,0.0430360919688676,0.153070462051613
"322","Single-Family & Residential Condominiums","0-0","14th",736,-9.87750137343492,0.0437966342561767,0.158072465481109
"323","Single-Family & Residential Condominiums","0-0","15th",397,-10.3950818957377,0.0441769919376774,0.167035754193551
"324","Single-Family & Residential Condominiums","0-0","16th",35,-10.8838474439548,0.0456370753075861,0.167772808054983
"325","Single-Family & Residential Condominiums","0-0","17th",365,-10.3392890616174,0.0450140241792842,0.169704749903636
"326","Single-Family & Residential Condominiums","0-0","1st",21,-9.38187235737757,0.043457205046122,0.148038911859454
"327","Single-Family & Residential Condominiums","0-0","2nd",81,-9.80173375003882,0.0463846662225857,0.165121789235985
"328","Single-Family & Residential Condominiums","0-0","3rd",132,-9.13462006806636,0.0412157007331404,0.138007283184618
"329","Single-Family & Residential Condominiums","0-0","4th",176,-9.4482459178686,0.0418344891529928,0.148587982491181
"330","Single-Family & Residential Condominiums","0-0","5th",353,-10.140906101715,0.0440879616495527,0.162889324568549
"331","Single-Family & Residential Condominiums","0-0","6th",345,-10.3968177696783,0.0459917498825353,0.176403414357685
"332","Single-Family & Residential Condominiums","0-0","7th",30,-11.3241317453791,0.0505679532720802,0.20034235931381
"333","Single-Family & Residential Condominiums","0-0","8th",24,-10.9362587172128,0.0480036839193561,0.176333488632359
"334","Single-Family & Residential Condominiums","0-0","9th",105,-10.688779011612,0.0446109932487434,0.172166417926628
"335","Single-Family & Residential Condominiums","60004","14th",10943,-10.2339255114726,0.0437894627998851,0.160626194810652
"336","Single-Family & Residential Condominiums","60004","15th",1276,-10.2136141426032,0.0439426312972772,0.163668167995998
"337","Single-Family & Residential Condominiums","60004","9th",1036,-10.2685516116201,0.0434352597860481,0.161511271696425
"338","Single-Family & Residential Condominiums","60005","14th",2392,-10.0192026994627,0.0427527939947324,0.154161174194609
"339","Single-Family & Residential Condominiums","60005","15th",3790,-10.2136141426032,0.0441069971042717,0.16682982123101
"340","Single-Family & Residential Condominiums","60005","17th",1,-11.2562656437325,0.047652144772118,0.184383378016086
"341","Single-Family & Residential Condominiums","60007","15th",8525,-10.5942635434045,0.0442176692676412,0.169293160896339
"342","Single-Family & Residential Condominiums","60008","14th",4992,-10.7342061098095,0.0451731361202045,0.169939760831644
"343","Single-Family & Residential Condominiums","60008","15th",426,-10.5942635434045,0.0556544342507645,0.222349133537207
"344","Single-Family & Residential Condominiums","60010","14th",2052,-9.52537867562722,0.0448209543786052,0.156523974867006
"345","Single-Family & Residential Condominiums","60010","15th",4536,-10.1083877885631,0.0427088113847423,0.157024184421683
"346","Single-Family & Residential Condominiums","60015","14th",1,-8.877317465513,0.0431217308606752,0.149553019495958
"347","Single-Family & Residential Condominiums","60016","14th",4,-9.72672626680504,0.0430430463576159,0.15433940397351
"348","Single-Family & Residential Condominiums","60016","17th",7869,-10.6251443011961,0.0458555022704024,0.174356922135658
"349","Single-Family & Residential Condominiums","60016","9th",3512,-10.6251443011961,0.0449487368327555,0.169351473730008
"350","Single-Family & Residential Condominiums","60018","17th",3830,-11.0613256269534,0.0465009303648791,0.185619717535963
"351","Single-Family & Residential Condominiums","60018","9th",3043,-11.4111753206537,0.048052439474325,0.190812834115431
"352","Single-Family & Residential Condominiums","60022","13th",3008,-8.10038988912714,0.0406394005516884,0.126018778293704
"353","Single-Family & Residential Condominiums","60025","13th",1089,-9.19382029436095,0.0417689208169621,0.141846895904404
"354","Single-Family & Residential Condominiums","60025","14th",8375,-9.39120680408283,0.0434824287842795,0.154269372517249
"355","Single-Family & Residential Condominiums","60025","9th",1226,-10.6328184796924,0.0453861477738833,0.171762583892931
"356","Single-Family & Residential Condominiums","60026","14th",3260,-9.45699620191261,0.0415855279827281,0.142521577911465
"357","Single-Family & Residential Condominiums","60029","14th",172,-9.57076125890246,0.0462497441146366,0.163508700102354
"358","Single-Family & Residential Condominiums","60043","13th",835,-9.27650495475375,0.0386713344497258,0.133933312237514
"359","Single-Family & Residential Condominiums","60053","13th",5719,-10.5167975702626,0.0444935195072006,0.16628295554256
"360","Single-Family & Residential Condominiums","60053","9th",2099,-10.131552209383,0.0448690314141147,0.165863827885967
"361","Single-Family & Residential Condominiums","60056","14th",437,-10.3247905741788,0.047685663279797,0.176949309409089
"362","Single-Family & Residential Condominiums","60056","15th",1640,-10.2079789306826,0.0461963884179628,0.175839580686016
"363","Single-Family & Residential Condominiums","60056","9th",11184,-10.2339255114726,0.0454493503601768,0.169021303764544
"364","Single-Family & Residential Condominiums","60062","14th",11578,-9.10246974144385,0.0412761771105528,0.140592099454447
"365","Single-Family & Residential Condominiums","60062","9th",108,-10.4738879360697,0.0462334609075998,0.180846364133406
"366","Single-Family & Residential Condominiums","60067","14th",10168,-10.137454375983,0.0451922975860769,0.164825701257839
"367","Single-Family & Residential Condominiums","60067","15th",402,-9.53569507629009,0.0447130752256393,0.161413462144157
"368","Single-Family & Residential Condominiums","60068","9th",12105,-10.2562216502524,0.0439692946242457,0.16066749141741
"369","Single-Family & Residential Condominiums","60070","14th",2006,-10.537734311929,0.0452511546586799,0.172977545677011
"370","Single-Family & Residential Condominiums","60070","9th",382,-10.6306186692991,0.0443172465356665,0.167474096380541
"371","Single-Family & Residential Condominiums","60074","14th",5653,-10.4851881837208,0.0455456995966992,0.172529802364673
"372","Single-Family & Residential Condominiums","60076","13th",9975,-10.4090384507045,0.043713613731252,0.158607732531423
"373","Single-Family & Residential Condominiums","60077","13th",5456,-10.5167975702626,0.0441978816026706,0.166614171272923
"374","Single-Family & Residential Condominiums","60089","14th",3060,-9.7690899882107,0.0442475098774607,0.16066277122741
"375","Single-Family & Residential Condominiums","60090","14th",5392,-10.6382441329436,0.0476042757099202,0.181426333399467
"376","Single-Family & Residential Condominiums","60090","9th",1,-10.3247905741788,0.0449271948608137,0.172474839400428
"377","Single-Family & Residential Condominiums","60091","13th",8563,-8.55687047577936,0.0410282623505714,0.134197361949435
"378","Single-Family & Residential Condominiums","60091","14th",47,-9.39120680408283,0.0447104353835522,0.152172771250864
"379","Single-Family & Residential Condominiums","60093","13th",4516,-8.15424314426495,0.040162752474062,0.129139436284262
"380","Single-Family & Residential Condominiums","60093","14th",1376,-9.14770280725049,0.0379660056009783,0.129568302965471
"381","Single-Family & Residential Condominiums","60103","15th",3958,-10.2170728613882,0.0446362823525666,0.169464688177413
"382","Single-Family & Residential Condominiums","60104","16th",2,-10.8664379171042,0.045578125,0.17091796875
"383","Single-Family & Residential Condominiums","60104","1st",5165,-11.2041837574358,0.0458923460962515,0.177420732124596
"384","Single-Family & Residential Condominiums","60107","15th",11745,-10.8182166029262,0.0469735397822673,0.183258102083464
"385","Single-Family & Residential Condominiums","60118","15th",3,-10.0066565881932,0.0424403005844698,0.15462844419705
"386","Single-Family & Residential Condominiums","60120","15th",5731,-10.9561747772008,0.0464115104809579,0.179575327228124
"387","Single-Family & Residential Condominiums","60120",NA,8,-10.924772686381,0.0473480463601295,0.17655010437585
"388","Single-Family & Residential Condominiums","60126","17th",133,-10.4225497815381,0.0467878481012658,0.177550379746835
"389","Single-Family & Residential Condominiums","60130","1st",1916,-9.38187235737757,0.0419974722695149,0.144780371566737
"390","Single-Family & Residential Condominiums","60131","16th",3449,-11.449662332925,0.0450738357063588,0.181704033069844
"391","Single-Family & Residential Condominiums","60131","17th",1840,-11.449662332925,0.0470965723336056,0.18715805483519
"392","Single-Family & Residential Condominiums","60131","9th",2,-11.5170689614362,0.0470153943540602,0.186801687561957
"393","Single-Family & Residential Condominiums","60133","15th",4506,-11.1916808763552,0.0478229669832671,0.186803102349065
"394","Single-Family & Residential Condominiums","60153","16th",749,-11.4710069383982,0.0484806629834254,0.195800184162063
"395","Single-Family & Residential Condominiums","60153","1st",4469,-10.106638061329,0.0433568040674879,0.158569116408822
"396","Single-Family & Residential Condominiums","60154","16th",2079,-10.4032365849479,0.0437595788964723,0.163426261891748
"397","Single-Family & Residential Condominiums","60154","17th",2926,-9.76818483889948,0.0427360649152812,0.151855501132393
"398","Single-Family & Residential Condominiums","60154","1st",1612,-10.3536540847095,0.0439018227009113,0.1643314001657
"399","Single-Family & Residential Condominiums","60155","16th",198,-10.1787909824535,0.043451276706618,0.160613861386139
"400","Single-Family & Residential Condominiums","60155","1st",2100,-9.89078194992075,0.0452320037038905,0.16382054644943
"401","Single-Family & Residential Condominiums","60160","16th",3330,-11.0125088112769,0.0479649208313455,0.190466231001926
"402","Single-Family & Residential Condominiums","60160","9th",17,-11.00239112235,0.0479654576856649,0.187396660909614
"403","Single-Family & Residential Condominiums","60162","16th",886,-10.8664379171042,0.0459262958700031,0.172826845504168
"404","Single-Family & Residential Condominiums","60162","17th",936,-10.8664379171042,0.0455715657902995,0.170646807674518
"405","Single-Family & Residential Condominiums","60162","1st",383,-10.8664379171042,0.0455811702204816,0.170964220328283
"406","Single-Family & Residential Condominiums","60163","16th",312,-10.8664379171042,0.0432865101472344,0.174033426183844
"407","Single-Family & Residential Condominiums","60163","17th",1394,-10.8664379171042,0.0432865101472344,0.174033426183844
"408","Single-Family & Residential Condominiums","60164","16th",5299,-11.4069541835772,0.0479813983294857,0.1941289668208
"409","Single-Family & Residential Condominiums","60165","16th",592,-12.1489238603599,0.0498477583920673,0.210374128303652
"410","Single-Family & Residential Condominiums","60165","9th",1,-11.00239112235,0.0479654576856649,0.187396660909614
"411","Single-Family & Residential Condominiums","60169","15th",7537,-10.4478394048157,0.0465259351484701,0.175500040733324
"412","Single-Family & Residential Condominiums","60171","9th",2118,-11.7074089550585,0.0465964417869087,0.191167468946295
"413","Single-Family & Residential Condominiums","60172","15th",1070,-11.3718188448697,0.0424079482061577,0.165612329418037
"414","Single-Family & Residential Condominiums","60173","15th",1381,-10.0438786800622,0.0462823794291984,0.167244291606467
"415","Single-Family & Residential Condominiums","60176","9th",2181,-11.326728967814,0.049789432036482,0.199211427345811
"416","Single-Family & Residential Condominiums","60192","14th",1,-9.52537867562722,0.044028286637931,0.151339978448276
"417","Single-Family & Residential Condominiums","60192","15th",5233,-9.78153814022198,0.0450162375375744,0.165050676635493
"418","Single-Family & Residential Condominiums","60193","15th",9428,-10.4707736191408,0.0447955285021978,0.167393866792494
"419","Single-Family & Residential Condominiums","60194","15th",4119,-10.4707736191408,0.0458099064252513,0.174869330590903
"420","Single-Family & Residential Condominiums","60195","15th",320,-10.6459429081826,0.0451058806932211,0.170878489847233
"421","Single-Family & Residential Condominiums","60201","13th",6558,-8.9185364030207,0.0420611866889187,0.143909859395121
"422","Single-Family & Residential Condominiums","60202","13th",4473,-10.3154756944358,0.0428033221024124,0.153003473402809
"423","Single-Family & Residential Condominiums","60203","13th",1511,-8.97222330669825,0.0411635428739542,0.13817218628337
"424","Single-Family & Residential Condominiums","60301","1st",17,-8.13478270890342,0.0415734720416125,0.141847420892935
"425","Single-Family & Residential Condominiums","60302","1st",5859,-8.25882710256769,0.0413813205529025,0.134969835686236
"426","Single-Family & Residential Condominiums","60304","1st",4376,-9.21134183176568,0.0414555231732075,0.140530800825477
"427","Single-Family & Residential Condominiums","60305","9th",2847,-8.90055678667274,0.0421356875949501,0.142642583612582
"428","Single-Family & Residential Condominiums","60402","16th",11966,-11.1475427855841,0.047388232830129,0.186727547037837
"429","Single-Family & Residential Condominiums","60406","5th",4396,-11.2816534707286,0.0486459826619708,0.193649914663806
"430","Single-Family & Residential Condominiums","60406","6th",1,-11.2919170200261,0.0517880880448856,0.207736728528269
"431","Single-Family & Residential Condominiums","60409","4th",9000,-10.0920734634514,0.0452925164564701,0.16725358501224
"432","Single-Family & Residential Condominiums","60409","6th",1,-9.91226724654939,0.0434271419637273,0.146675422138837
"433","Single-Family & Residential Condominiums","60411","4th",4,-10.3461572065935,0.0449236821253945,0.167755089325622
"434","Single-Family & Residential Condominiums","60411","5th",6170,-10.872574248004,0.0460087949078945,0.176998259176114
"435","Single-Family & Residential Condominiums","60411","6th",8719,-10.7239341469382,0.0470998621308906,0.181292286381289
"436","Single-Family & Residential Condominiums","60415","6th",2017,-11.0086153670594,0.0487389916862577,0.191355725159546
"437","Single-Family & Residential Condominiums","60418","6th",2193,-10.7547591094445,0.0456104862911177,0.170657030086613
"438","Single-Family & Residential Condominiums","60419","4th",214,-10.0532364127117,0.0427181950277689,0.152308962509273
"439","Single-Family & Residential Condominiums","60419","5th",2504,-9.91226724654939,0.0441126837031255,0.164504922037795
"440","Single-Family & Residential Condominiums","60419","6th",4736,-9.91226724654939,0.0432236057194776,0.156800263497377
"441","Single-Family & Residential Condominiums","60422","5th",2219,-9.11194792242781,0.0394398358613425,0.135241110684503
"442","Single-Family & Residential Condominiums","60422","6th",1161,-9.72926022729994,0.041513530243904,0.146716489688257
"443","Single-Family & Residential Condominiums","60423","6th",7,-9.9365721996766,0.042093715223942,0.163142477883661
"444","Single-Family & Residential Condominiums","60425","5th",697,-11.4323661253882,0.0451698656429942,0.18196641074856
"445","Single-Family & Residential Condominiums","60425","6th",1913,-10.4199406777981,0.044460755207004,0.170944083600376
"446","Single-Family & Residential Condominiums","60426","5th",8970,-10.5099920275907,0.0468473042792512,0.175893135899259
"447","Single-Family & Residential Condominiums","60426","6th",2,-10.0958266388222,0.046588122127647,0.173154696989848
"448","Single-Family & Residential Condominiums","60428","5th",4832,-9.82776502644587,0.0430324799935101,0.155527055758537
"449","Single-Family & Residential Condominiums","60429","5th",4844,-9.89742871614626,0.0436340632171484,0.160355648721831
"450","Single-Family & Residential Condominiums","60430","5th",219,-9.18245301705723,0.0406487261793506,0.144962789333441
"451","Single-Family & Residential Condominiums","60430","6th",6082,-10.0428011377311,0.043466254881757,0.1602586776239
"452","Single-Family & Residential Condominiums","60438","4th",8858,-10.2587087590218,0.044922722152058,0.167548826300505
"453","Single-Family & Residential Condominiums","60438","6th",308,-10.6817651306292,0.045316479717043,0.169613092362685
"454","Single-Family & Residential Condominiums","60439","17th",7318,-10.7675883090271,0.0453379389822994,0.173591828629141
"455","Single-Family & Residential Condominiums","60443","6th",5746,-9.728050172289,0.0411918157805524,0.148298715918143
"456","Single-Family & Residential Condominiums","60445","5th",3837,-11.2268116655179,0.047833990994423,0.190446240484152
"457","Single-Family & Residential Condominiums","60445","6th",588,-11.0252677043164,0.0481169850149633,0.18795560675889
"458","Single-Family & Residential Condominiums","60449","6th",10,-11.0314456077593,0.0424829359513792,0.166630201028518
"459","Single-Family & Residential Condominiums","60452","5th",944,-11.0076504008109,0.0474209060800163,0.184011527885963
"460","Single-Family & Residential Condominiums","60452","6th",6670,-10.8945347147678,0.0466745201725846,0.179903428171225
"461","Single-Family & Residential Condominiums","60453","11th",13283,-10.6436417185956,0.0454429843101079,0.173112186627203
"462","Single-Family & Residential Condominiums","60453","6th",3247,-10.9041010533758,0.0472022053689151,0.183986328332112
"463","Single-Family & Residential Condominiums","60455","11th",12,-11.0247165580077,0.046806517311609,0.186714460285132
"464","Single-Family & Residential Condominiums","60455","17th",4,-11.3692182863823,0.0486760918959859,0.195276950265085
"465","Single-Family & Residential Condominiums","60455","6th",3297,-11.2492316465058,0.0467818148721339,0.18821052330458
"466","Single-Family & Residential Condominiums","60456","11th",1546,-10.8205881330826,0.0482503740648379,0.186556608478803
"467","Single-Family & Residential Condominiums","60457","17th",3178,-11.3033096765066,0.0458987080565521,0.18246133507703
"468","Single-Family & Residential Condominiums","60457","6th",227,-10.4608018950205,0.047280159717497,0.177306201833481
"469","Single-Family & Residential Condominiums","60458","17th",224,-11.2719409815313,0.0467318539066112,0.177263985205733
"470","Single-Family & Residential Condominiums","60458","6th",1719,-11.2719409815313,0.04898302671967,0.195220314983458
"471","Single-Family & Residential Condominiums","60459","11th",8439,-10.9462703844018,0.0476405507292739,0.186042499909859
"472","Single-Family & Residential Condominiums","60459","16th",1,-11.6300481190221,0.0475358490566038,0.193987061994609
"473","Single-Family & Residential Condominiums","60461","5th",1780,-9.64709995630137,0.0416086032983116,0.148297668340574
"474","Single-Family & Residential Condominiums","60462","17th",10606,-10.2497585458132,0.0445953039734387,0.165197092574288
"475","Single-Family & Residential Condominiums","60462","6th",193,-11.0741199328069,0.0455352476507926,0.179215034589773
"476","Single-Family & Residential Condominiums","60463","17th",3486,-10.3002334143021,0.044072498135314,0.16430174329365
"477","Single-Family & Residential Condominiums","60463","6th",852,-10.322110272818,0.0445210982762115,0.167728482087394
"478","Single-Family & Residential Condominiums","60464","17th",3273,-10.0687427940162,0.0434948693985455,0.160234382216959
"479","Single-Family & Residential Condominiums","60464","6th",1,-11.3548973182947,0.0486760918959859,0.195276950265085
"480","Single-Family & Residential Condominiums","60465","17th",3287,-11.3419995068247,0.0469281901864508,0.186548828639242
"481","Single-Family & Residential Condominiums","60465","6th",662,-11.3419995068247,0.0442216308230743,0.173142387659507
"482","Single-Family & Residential Condominiums","60466","5th",1459,-9.69213579548458,0.044998628650917,0.162012988655678
"483","Single-Family & Residential Condominiums","60466","6th",3386,-9.84729317600429,0.0411484530987294,0.147815733166932
"484","Single-Family & Residential Condominiums","60467","17th",6997,-9.95925023914862,0.0428711255199824,0.156672534081151
"485","Single-Family & Residential Condominiums","60467","6th",210,-11.1363035674597,0.0455463243873979,0.180183897316219
"486","Single-Family & Residential Condominiums","60469","5th",1763,-11.0185987551913,0.0498710127674827,0.196277766529153
"487","Single-Family & Residential Condominiums","60471","6th",3612,-10.1990193432878,0.0420240455953197,0.156234935021347
"488","Single-Family & Residential Condominiums","60472","5th",1903,-10.8564053721602,0.0455361260252334,0.179842964714312
"489","Single-Family & Residential Condominiums","60473","4th",460,-9.10686425146305,0.0401367636079129,0.138043873281801
"490","Single-Family & Residential Condominiums","60473","6th",7311,-9.17241700607623,0.041783669292093,0.144593218855428
"491","Single-Family & Residential Condominiums","60475","5th",1,-11.0766656454919,0.0524363636363636,0.21861976284585
"492","Single-Family & Residential Condominiums","60475","6th",1923,-11.4970410302296,0.0443894788648689,0.177456963384747
"493","Single-Family & Residential Condominiums","60476","5th",1,-10.5099920275907,0.0486740867579909,0.181251141552511
"494","Single-Family & Residential Condominiums","60476","6th",907,-10.8835648851283,0.0456190781049936,0.178256081946223
"495","Single-Family & Residential Condominiums","60477","17th",4722,-10.3573714190293,0.0445183705975327,0.167328612661033
"496","Single-Family & Residential Condominiums","60477","5th",26,-9.80211276319485,0.0438646204046016,0.159827536772347
"497","Single-Family & Residential Condominiums","60477","6th",5255,-10.6617662619895,0.0449352434035828,0.170268345998144
"498","Single-Family & Residential Condominiums","60478","5th",5160,-9.89742871614626,0.0419056383960725,0.14946677612682
"499","Single-Family & Residential Condominiums","60480","17th",1958,-10.6628457449057,0.0466090195398598,0.178573963547272
"500","Single-Family & Residential Condominiums","60482","17th",995,-10.8235855495873,0.0464845412423761,0.180532822915459
"501","Single-Family & Residential Condominiums","60482","6th",1524,-11.0086153670594,0.0489045215752337,0.191327155272458
"502","Single-Family & Residential Condominiums","60487","17th",3359,-10.3392890616174,0.0442239601666785,0.16386909609363
"503","Single-Family & Residential Condominiums","60487","6th",2164,-11.1363035674597,0.0453171275896039,0.177509304507038
"504","Single-Family & Residential Condominiums","60491","17th",1,-10.6290279120244,0.0439629047469349,0.167748506758881
"505","Single-Family & Residential Condominiums","60501","16th",1647,-11.7873661916724,0.0504277247523402,0.208478940112073
"506","Single-Family & Residential Condominiums","60501","6th",210,-11.7873661916724,0.0455198989260897,0.18143145925458
"507","Single-Family & Residential Condominiums","60513","16th",2822,-10.8838474439548,0.0433269652210744,0.167415644178152
"508","Single-Family & Residential Condominiums","60513","17th",3552,-9.12294802917242,0.0430179666869967,0.149947762992072
"509","Single-Family & Residential Condominiums","60521","17th",747,-9.04272514764429,0.0431021833402864,0.146377345343215
"510","Single-Family & Residential Condominiums","60523","17th",5,-10.4225497815381,0.0452733135470785,0.167408232383249
"511","Single-Family & Residential Condominiums","60523",NA,4,-10.4225497815381,0.0467878481012658,0.177550379746835
"512","Single-Family & Residential Condominiums","60525","16th",3285,-9.26023059360518,0.0438637963973968,0.152898413760046
"513","Single-Family & Residential Condominiums","60525","17th",4773,-10.1343366543123,0.0437252196606028,0.158148860696072
"514","Single-Family & Residential Condominiums","60526","16th",2,-9.26023059360518,0.0401084573218481,0.135334377447142
"515","Single-Family & Residential Condominiums","60526","17th",3840,-9.85161682292966,0.0437288441083832,0.154112897206587
"516","Single-Family & Residential Condominiums","60527","17th",1200,-10.3161876082129,0.0439149262165239,0.164219923042052
"517","Single-Family & Residential Condominiums","60534","16th",2428,-10.6904012478162,0.0465746422208614,0.178333478872964
"518","Single-Family & Residential Condominiums","60546","16th",2209,-10.4278396628755,0.0469970741456162,0.176315226360959
"519","Single-Family & Residential Condominiums","60546","17th",2711,-9.61374352654374,0.0434682793825511,0.153871098300594
"520","Single-Family & Residential Condominiums","60558","17th",4480,-8.3372458763574,0.0403062569266387,0.129887530721216
"521","Single-Family & Residential Condominiums","60603","5th",1,-9.36816582823522,0.0450921288014311,0.155257602862254
"522","Single-Family & Residential Condominiums","60605","2nd",567,-8.15654445115376,0.0391103436971122,0.125380548701914
"523","Single-Family & Residential Condominiums","60605","3rd",92,-7.8668208521736,0.039190838083175,0.120862993455774
"524","Single-Family & Residential Condominiums","60606","2nd",4,-8.6266365418117,0.0400314086891104,0.124834681211209
"525","Single-Family & Residential Condominiums","60607","2nd",931,-8.74398969075067,0.0422942302964224,0.137708466874166
"526","Single-Family & Residential Condominiums","60607","4th",1,-9.42815670360521,0.0469797785267212,0.162246509388541
"527","Single-Family & Residential Condominiums","60607","5th",1,-8.75599971998472,0.0407192276749799,0.130675784392599
"528","Single-Family & Residential Condominiums","60607","7th",63,-8.74398969075067,0.0426952983725136,0.139879445449066
"529","Single-Family & Residential Condominiums","60608","11th",1715,-10.3974000805759,0.0501052836526976,0.189106945629948
"530","Single-Family & Residential Condominiums","60608","2nd",89,-10.2829992884716,0.0461231828320971,0.173197974884009
"531","Single-Family & Residential Condominiums","60608","7th",2302,-10.9227888950532,0.0484138697522712,0.180009315889021
"532","Single-Family & Residential Condominiums","60609","11th",2872,-10.6415452931277,0.0473054370542847,0.179762822076051
"533","Single-Family & Residential Condominiums","60609","2nd",851,-10.4655672861058,0.0459895153049593,0.165567918962634
"534","Single-Family & Residential Condominiums","60609","3rd",16,-9.09685199993681,0.0496138446709132,0.173354080463564
"535","Single-Family & Residential Condominiums","60609","7th",1452,-11.509651121998,0.0509317515518904,0.208169673215445
"536","Single-Family & Residential Condominiums","60610","12th",29,-7.84784468599165,0.0443326896941585,0.14716127813997
"537","Single-Family & Residential Condominiums","60610","3rd",876,-8.20225113223954,0.041993249737675,0.130350527617775
"538","Single-Family & Residential Condominiums","60611","12th",1,-7.84784468599165,0.0404638218923933,0.124290166975881
"539","Single-Family & Residential Condominiums","60611","3rd",123,-7.84784468599165,0.0412039158224482,0.126748574528019
"540","Single-Family & Residential Condominiums","60612","11th",2,-8.67410314492746,0.0402508741882538,0.135023314065511
"541","Single-Family & Residential Condominiums","60612","1st",466,-9.19392669012087,0.0467624574100882,0.172608029248532
"542","Single-Family & Residential Condominiums","60612","2nd",952,-9.82358557804797,0.0433908624624475,0.153499063610147
"543","Single-Family & Residential Condominiums","60612","8th",164,-9.19392669012087,0.0451362126245847,0.160301218161683
"544","Single-Family & Residential Condominiums","60613","10th",876,-8.19944547345179,0.0435897059270178,0.140319333258589
"545","Single-Family & Residential Condominiums","60613","12th",757,-8.23946985421788,0.0435545682369561,0.141871908897208
"546","Single-Family & Residential Condominiums","60613","1st",1,-11.0326532861174,0.0437348993288591,0.162826019617966
"547","Single-Family & Residential Condominiums","60614","10th",1579,-7.92572004092846,0.041221471518452,0.124348896621364
"548","Single-Family & Residential Condominiums","60614","12th",2750,-7.92572004092846,0.0423986705697414,0.134900109367759
"549","Single-Family & Residential Condominiums","60614","3rd",104,-7.92572004092846,0.0422504677434546,0.128868145611451
"550","Single-Family & Residential Condominiums","60614","8th",1,-11.6898784929277,0.051589186012342,0.210292095210109
"551","Single-Family & Residential Condominiums","60615","2nd",40,-9.30282309391017,0.0430725862068966,0.147198748403576
"552","Single-Family & Residential Condominiums","60615","3rd",1677,-8.17069100585256,0.0406188135233673,0.132075690715121
"553","Single-Family & Residential Condominiums","60616","11th",1339,-10.6415452931277,0.0499326180370526,0.19078346644587
"554","Single-Family & Residential Condominiums","60616","2nd",801,-9.09685199993681,0.0481422497352502,0.174520151322263
"555","Single-Family & Residential Condominiums","60616","3rd",538,-9.09685199993681,0.0402793303043633,0.134921212590175
"556","Single-Family & Residential Condominiums","60616","7th",147,-10.5173461691729,0.0487575822442014,0.179991433978417
"557","Single-Family & Residential Condominiums","60617","4th",18090,-10.2317188195518,0.0452147349076803,0.166670080536705
"558","Single-Family & Residential Condominiums","60618","10th",4,-8.88479660233927,0.0404689178818112,0.141614735226401
"559","Single-Family & Residential Condominiums","60618","12th",3390,-9.30161739431352,0.044717891742934,0.154777330225954
"560","Single-Family & Residential Condominiums","60618","8th",3847,-10.1937379079122,0.0476406682708074,0.177371074032979
"561","Single-Family & Residential Condominiums","60619","3rd",2131,-9.4482459178686,0.0432252567791667,0.151287564139143
"562","Single-Family & Residential Condominiums","60619","4th",9923,-9.60684057121702,0.0422711377775259,0.150264725364603
"563","Single-Family & Residential Condominiums","60620","3rd",4678,-9.59414768195708,0.0440245755745385,0.154699932803933
"564","Single-Family & Residential Condominiums","60620","4th",8588,-9.42815670360521,0.0438178706578424,0.151649224856635
"565","Single-Family & Residential Condominiums","60621","2nd",2511,-9.99900372098262,0.048300362729247,0.18396169008526
"566","Single-Family & Residential Condominiums","60621","3rd",248,-9.99900372098262,0.0450195851863816,0.157915466012155
"567","Single-Family & Residential Condominiums","60621","9th",1,-8.40760004879092,0.0391932809773124,0.126485165794066
"568","Single-Family & Residential Condominiums","60622","12th",1079,-8.31661705339177,0.0426177609838571,0.134914910541653
"569","Single-Family & Residential Condominiums","60622","1st",6,-9.19392669012087,0.0477114676660131,0.183516930153294
"570","Single-Family & Residential Condominiums","60622","2nd",668,-9.19392669012087,0.0442258416349715,0.15020251399256
"571","Single-Family & Residential Condominiums","60622","8th",462,-9.58183258397023,0.0475753459775676,0.173637472085745
"572","Single-Family & Residential Condominiums","60623","2nd",1278,-10.2829992884716,0.0457878600529233,0.172453825145012
"573","Single-Family & Residential Condominiums","60623","7th",2576,-11.6558037522225,0.0499591690367144,0.206145728507803
"574","Single-Family & Residential Condominiums","60624","11th",2,-9.93073453989448,0.0438777264581963,0.157793866434139
"575","Single-Family & Residential Condominiums","60624","1st",904,-9.82358557804797,0.0466089873968564,0.173606783601273
"576","Single-Family & Residential Condominiums","60624","2nd",535,-9.82358557804797,0.0450839100172197,0.163043071450131
"577","Single-Family & Residential Condominiums","60625","10th",668,-9.3738990442209,0.0425235393703809,0.147663367415187
"578","Single-Family & Residential Condominiums","60625","12th",2948,-10.1483643096598,0.0447571755868998,0.163530442123971
"579","Single-Family & Residential Condominiums","60625","8th",786,-10.7651487314059,0.0492151632696168,0.192195228141438
"580","Single-Family & Residential Condominiums","60626","10th",267,-10.2892514770314,0.0464384249909571,0.173055123216637
"581","Single-Family & Residential Condominiums","60626","13th",953,-10.2892514770314,0.047363124916102,0.175597872809535
"582","Single-Family & Residential Condominiums","60626",NA,2,-10.0628257665179,0.0402875549048316,0.123371595900439
"583","Single-Family & Residential Condominiums","60628","4th",5060,-9.42815670360521,0.0416652782738983,0.145698566958171
"584","Single-Family & Residential Condominiums","60628","5th",13049,-9.36816582823522,0.0435828865642587,0.154026662217812
"585","Single-Family & Residential Condominiums","60629","11th",7513,-11.2968281887453,0.0488878438951761,0.193906109573
"586","Single-Family & Residential Condominiums","60629","2nd",2069,-10.1029146129704,0.0462053485271918,0.173434319639102
"587","Single-Family & Residential Condominiums","60629","3rd",112,-9.9147783848647,0.0452532687848569,0.16833728876553
"588","Single-Family & Residential Condominiums","60629","7th",8744,-11.2968281887453,0.0508531213177293,0.204698213907963
"589","Single-Family & Residential Condominiums","60630","10th",2088,-10.1232034060758,0.0436054232641951,0.163886702629984
"590","Single-Family & Residential Condominiums","60630","12th",7682,-10.4690568678472,0.0444439626654615,0.166026031875483
"591","Single-Family & Residential Condominiums","60630","8th",3,-10.7651487314059,0.0505283018867924,0.205100145137881
"592","Single-Family & Residential Condominiums","60631","9th",8206,-9.53158780947618,0.0419915673287551,0.147102749664836
"593","Single-Family & Residential Condominiums","60632","11th",638,-11.2968281887453,0.048973226451893,0.196013100115821
"594","Single-Family & Residential Condominiums","60632","16th",2165,-11.2055528161781,0.0475008264101167,0.184229097696384
"595","Single-Family & Residential Condominiums","60632","3rd",1,-9.12376965406371,0.0399255162241888,0.135853982300885
"596","Single-Family & Residential Condominiums","60632","7th",6612,-11.3514353020128,0.0512283208932216,0.209633028036937
"597","Single-Family & Residential Condominiums","60633","4th",3464,-10.1930881451061,0.0445476832609842,0.165773457901779
"598","Single-Family & Residential Condominiums","60634","12th",5829,-10.6895542411169,0.0461125501760717,0.175853070004823
"599","Single-Family & Residential Condominiums","60634","1st",3021,-11.0326532861174,0.0468820487919216,0.179564817116992
"600","Single-Family & Residential Condominiums","60634","8th",1343,-11.0326532861174,0.0481101526202834,0.194394374343902
"601","Single-Family & Residential Condominiums","60634","9th",6481,-10.3228230323257,0.045285123141401,0.169910965333815
"602","Single-Family & Residential Condominiums","60636","11th",67,-10.6561208856622,0.0476741595615639,0.195002551601261
"603","Single-Family & Residential Condominiums","60636","2nd",6901,-10.1224478957736,0.0452884021721044,0.165037449123321
"604","Single-Family & Residential Condominiums","60636","3rd",33,-10.1224478957736,0.042296875,0.152725
"605","Single-Family & Residential Condominiums","60637","2nd",449,-9.80173375003882,0.0478629330637481,0.175385499723091
"606","Single-Family & Residential Condominiums","60637","3rd",1504,-9.23561306592489,0.0411894851816004,0.138259745182434
"607","Single-Family & Residential Condominiums","60638","11th",13402,-10.1356123387986,0.0448286393214161,0.166043127136155
"608","Single-Family & Residential Condominiums","60638","16th",1311,-11.6300481190221,0.0477545398030301,0.19439271193429
"609","Single-Family & Residential Condominiums","60638","7th",1460,-11.2055528161781,0.0502773287629995,0.197331580615611
"610","Single-Family & Residential Condominiums","60639","12th",1,-9.37054844711728,0.0426205641492266,0.142520473157416
"611","Single-Family & Residential Condominiums","60639","1st",1341,-10.4064096200401,0.0455161013445352,0.171501592442277
"612","Single-Family & Residential Condominiums","60639","8th",5749,-11.1130675504067,0.0496305572674606,0.198938278171604
"613","Single-Family & Residential Condominiums","60640","10th",1487,-9.34274559844322,0.0445426417389063,0.155267821412995
"614","Single-Family & Residential Condominiums","60641","10th",1,-10.0991054522372,0.0437692767483562,0.157275552898984
"615","Single-Family & Residential Condominiums","60641","12th",4497,-10.4690568678472,0.0453866373152987,0.168107837078542
"616","Single-Family & Residential Condominiums","60641","8th",3992,-11.1130675504067,0.0486869302908425,0.192256459617647
"617","Single-Family & Residential Condominiums","60642","12th",336,-9.19392669012087,0.0432475783177055,0.139702321702365
"618","Single-Family & Residential Condominiums","60642","2nd",226,-9.19392669012087,0.0451026297366301,0.152851801166849
"619","Single-Family & Residential Condominiums","60643","11th",6642,-8.67410314492746,0.0397940884281566,0.130865923115031
"620","Single-Family & Residential Condominiums","60643","4th",939,-9.19760872854221,0.0441093589083267,0.152366342743839
"621","Single-Family & Residential Condominiums","60643","5th",8087,-9.33033293446221,0.0426149492491189,0.14623642019877
"622","Single-Family & Residential Condominiums","60644","1st",2913,-10.0260664281596,0.0444882517003653,0.163171486969487
"623","Single-Family & Residential Condominiums","60644","2nd",167,-10.0260664281596,0.0441761183071606,0.15727963959906
"624","Single-Family & Residential Condominiums","60645","13th",4353,-9.86663801553616,0.0452688442435231,0.166222062195487
"625","Single-Family & Residential Condominiums","60646","10th",5800,-10.0991054522372,0.0428222284499572,0.153252335091672
"626","Single-Family & Residential Condominiums","60646","12th",2,-10.5042432570988,0.0390298136645963,0.128268322981366
"627","Single-Family & Residential Condominiums","60646","13th",1,-10.0076385993088,0.0421296583850932,0.150551242236025
"628","Single-Family & Residential Condominiums","60646","9th",2106,-8.51324979395656,0.0401631050726669,0.131068402671003
"629","Single-Family & Residential Condominiums","60647","12th",831,-8.31661705339177,0.0429075081710612,0.1351488686473
"630","Single-Family & Residential Condominiums","60647","8th",3940,-9.58183258397023,0.0467882260411993,0.169260093958237
"631","Single-Family & Residential Condominiums","60649","3rd",1508,-9.64471284895827,0.0405858364913788,0.137987580274899
"632","Single-Family & Residential Condominiums","60649","4th",1577,-9.64471284895827,0.0415855063791054,0.144075617071461
"633","Single-Family & Residential Condominiums","60651","1st",4463,-10.0260664281596,0.0455645611860497,0.170930301243902
"634","Single-Family & Residential Condominiums","60651","8th",938,-11.3458814524846,0.0503427160780835,0.200742427132122
"635","Single-Family & Residential Condominiums","60652","11th",6056,-10.8833485668656,0.0462484469361654,0.178169862556953
"636","Single-Family & Residential Condominiums","60652","3rd",5659,-9.7872460525584,0.0426262818674644,0.15128079162591
"637","Single-Family & Residential Condominiums","60653","3rd",1613,-9.30282309391017,0.0422554792581977,0.148204937916308
"638","Single-Family & Residential Condominiums","60654","12th",54,-7.88984975890821,0.0412766565312041,0.126849919012391
"639","Single-Family & Residential Condominiums","60654","2nd",82,-9.19392669012087,0.0425860445205479,0.141265410958904
"640","Single-Family & Residential Condominiums","60655","11th",9638,-8.74079205634257,0.0394130113456734,0.13088330723725
"641","Single-Family & Residential Condominiums","60655","5th",2,-10.9243898503449,0.0429856938483548,0.166897711015737
"642","Single-Family & Residential Condominiums","60655","6th",90,-10.9243898503449,0.0429856938483548,0.166897711015737
"643","Single-Family & Residential Condominiums","60656","10th",1114,-9.90245733644372,0.043612040947493,0.157281495905687
"644","Single-Family & Residential Condominiums","60656","9th",4868,-9.89953099452685,0.0434109616587306,0.156496155495436
"645","Single-Family & Residential Condominiums","60657","10th",904,-8.19944547345179,0.0429838352414626,0.135957323638575
"646","Single-Family & Residential Condominiums","60657","12th",1599,-8.30274263869724,0.0422794778907447,0.135590247128462
"647","Single-Family & Residential Condominiums","60658","6th",11,-10.9243898503449,0.0429856938483548,0.166897711015737
"648","Single-Family & Residential Condominiums","60659","10th",3080,-10.5042432570988,0.0442013741868596,0.168787372786688
"649","Single-Family & Residential Condominiums","60659","12th",43,-10.1483643096598,0.045784320494186,0.161137688275194
"650","Single-Family & Residential Condominiums","60660","10th",1321,-9.62035044433641,0.044792120936686,0.16386674161712
"651","Single-Family & Residential Condominiums","60660","13th",1,-9.8501245313973,0.0506841322928279,0.193646228167967
"652","Single-Family & Residential Condominiums","60661","2nd",24,-8.6266365418117,0.0400314086891104,0.124834681211209
"653","Single-Family & Residential Condominiums","60706","9th",6461,-10.9420845278001,0.0448783431354115,0.174088861638797
"654","Single-Family & Residential Condominiums","60707","1st",3613,-11.0326532861174,0.0462751347244682,0.180399792296015
"655","Single-Family & Residential Condominiums","60707","9th",5138,-10.7485905206158,0.0459080813135504,0.174408913647487
"656","Single-Family & Residential Condominiums","60712","13th",4337,-10.3731208385164,0.0424826950767895,0.157538690966553
"657","Single-Family & Residential Condominiums","60714","13th",2291,-10.4090384507045,0.0461265125112081,0.183620253249427
"658","Single-Family & Residential Condominiums","60714","9th",5481,-10.131552209383,0.0455249720834735,0.171251503831036
"659","Single-Family & Residential Condominiums","60803","11th",5,-8.74079205634257,0.0382615702479339,0.126178512396694
"660","Single-Family & Residential Condominiums","60803","5th",496,-10.9243898503449,0.0429939761476237,0.166957891897905
"661","Single-Family & Residential Condominiums","60803","6th",4449,-10.9041010533758,0.0458273569900871,0.180089103826165
"662","Single-Family & Residential Condominiums","60804","16th",8579,-11.8940509914067,0.0497945059896025,0.204580776615118
"663","Single-Family & Residential Condominiums","60805","11th",5321,-10.0998146946765,0.0427000129793499,0.15540990645279
"664","Single-Family & Residential Condominiums","60805","4th",2077,-10.1224441287815,0.0434143229111895,0.160892886435907
"665","Single-Family & Residential Condominiums","60827","5th",5915,-9.97640470159531,0.0439465423039274,0.159458363992404
"666","Single-Family & Residential Condominiums",NA,"10th",14,-9.56612041977467,0.0438106961925843,0.152494387719864
"667","Single-Family & Residential Condominiums",NA,"11th",37,-10.3974000805759,0.0475816426121089,0.177361392050956
"668","Single-Family & Residential Condominiums",NA,"12th",22,-8.60070682786552,0.0435412913434131,0.145998225634955
"669","Single-Family & Residential Condominiums",NA,"13th",96,-10.3663710198941,0.0434239836776139,0.156704945715667
"670","Single-Family & Residential Condominiums",NA,"14th",177,-9.01442714536395,0.0422558850063109,0.14176696527094
"671","Single-Family & Residential Condominiums",NA,"15th",6,-10.2136141426032,0.0427428550748779,0.160763741851065
"672","Single-Family & Residential Condominiums",NA,"16th",10,-10.7871243458855,0.0466948781239902,0.180977556284351
"673","Single-Family & Residential Condominiums",NA,"17th",119,-10.2597397252755,0.043706279490888,0.16015422851792
"674","Single-Family & Residential Condominiums",NA,"1st",16,-9.38086683378224,0.0439987015364461,0.160611331205635
"675","Single-Family & Residential Condominiums",NA,"2nd",3,-8.6266365418117,0.0443256075842354,0.1528767431327
"676","Single-Family & Residential Condominiums",NA,"3rd",41,-9.30282309391017,0.04070385039236,0.13764819488492
"677","Single-Family & Residential Condominiums",NA,"4th",7,-9.94659679807332,0.0471895587713074,0.175528807090184
"678","Single-Family & Residential Condominiums",NA,"5th",18,-10.3317858598028,0.0441728453616104,0.16502793978668
"679","Single-Family & Residential Condominiums",NA,"6th",26,-9.9365721996766,0.0433618054070419,0.158205150084061
"680","Single-Family & Residential Condominiums",NA,"7th",44,-10.5173461691729,0.045884017046382,0.16035110514196
"681","Single-Family & Residential Condominiums",NA,"8th",78,-9.58183258397023,0.0453719587351032,0.155439550714263
"682","Single-Family & Residential Condominiums",NA,"9th",7,-10.0826685540657,0.0422262747591891,0.156649790628079
"683","Single-Family & Residential Condominiums",NA,NA,17982,-9.37054844711728,0.0443068665355637,0.155333901230425
